<?xml version="1.0" encoding="UTF-8" standalone="no"?>
<!-- Generator: Adobe Illustrator 16.0.0, SVG Export Plug-In . SVG Version: 6.00 Build 0)  -->

<svg
   xmlns:dc="http://purl.org/dc/elements/1.1/"
   xmlns:cc="http://creativecommons.org/ns#"
   xmlns:rdf="http://www.w3.org/1999/02/22-rdf-syntax-ns#"
   xmlns:svg="http://www.w3.org/2000/svg"
   xmlns="http://www.w3.org/2000/svg"
   xmlns:sodipodi="http://sodipodi.sourceforge.net/DTD/sodipodi-0.dtd"
   xmlns:inkscape="http://www.inkscape.org/namespaces/inkscape"
   version="1.1"
   id="Capa_1"
   x="0px"
   y="0px"
   width="1544"
   height="500"
   viewBox="0 0 1544 500.00001"
   xml:space="preserve"
   sodipodi:docname="banner.svg"
   inkscape:version="0.92.4 (unknown)"><metadata
   id="metadata41"><rdf:RDF><cc:Work
       rdf:about=""><dc:format>image/svg+xml</dc:format><dc:type
         rdf:resource="http://purl.org/dc/dcmitype/StillImage" /><dc:title></dc:title></cc:Work></rdf:RDF></metadata><defs
   id="defs39" /><sodipodi:namedview
   pagecolor="#eceff1"
   bordercolor="#666666"
   borderopacity="1"
   objecttolerance="10"
   gridtolerance="10"
   guidetolerance="10"
   inkscape:pageopacity="1"
   inkscape:pageshadow="2"
   inkscape:window-width="1366"
   inkscape:window-height="703"
   id="namedview37"
   showgrid="false"
   inkscape:zoom="0.74676166"
   inkscape:cx="772"
   inkscape:cy="250"
   inkscape:window-x="0"
   inkscape:window-y="0"
   inkscape:window-maximized="1"
   inkscape:current-layer="Capa_1" />
<g
   id="g4"
   transform="matrix(2.3946742,0,0,2.3946742,655.73737,133.73737)">
	<path
   d="M 79.87,12.166 C 79.87,5.458 74.414,0 67.706,0 61,0 55.541,5.458 55.541,12.166 c 0,3.939 1.891,7.437 4.803,9.661 -2.768,5.206 -8.141,7.45 -14.78,10.2 -3.533,1.463 -7.384,3.061 -10.84,5.349 V 23.085 c 4.041,-1.98 6.837,-6.124 6.837,-10.918 0,-6.708 -5.459,-12.166 -12.166,-12.166 -6.707,0 -12.164,5.457 -12.164,12.165 0,4.794 2.796,8.938 6.835,10.918 v 50.933 c -4.039,1.979 -6.835,6.124 -6.835,10.918 0,6.708 5.457,12.166 12.164,12.166 6.707,0 12.166,-5.457 12.166,-12.165 0,-4.794 -2.796,-8.938 -6.837,-10.918 V 57.996 c 0,-9.5 5.117,-12.062 14.919,-16.122 7.598,-3.146 17.334,-7.209 21.429,-18.027 5.073,-1.464 8.798,-6.142 8.798,-11.681 z M 29.395,5.33 c 3.77,0 6.836,3.067 6.836,6.836 0,3.769 -3.066,6.836 -6.836,6.836 -3.768,0 -6.835,-3.066 -6.835,-6.836 -10e-4,-3.77 3.066,-6.836 6.835,-6.836 z m 0,86.441 c -3.768,0 -6.835,-3.066 -6.835,-6.836 0,-3.769 3.067,-6.836 6.835,-6.836 3.77,0 6.836,3.066 6.836,6.836 -0.001,3.771 -3.068,6.836 -6.836,6.836 z M 67.706,19.002 c -3.77,0 -6.836,-3.066 -6.836,-6.836 0,-3.771 3.066,-6.836 6.836,-6.836 3.769,0 6.835,3.067 6.835,6.836 0,3.769 -3.066,6.836 -6.835,6.836 z"
   id="path2"
   inkscape:connector-curvature="0" />
</g>
<g
   id="g6"
   transform="translate(0,402.899)">
</g>
<g
   id="g8"
   transform="translate(0,402.899)">
</g>
<g
   id="g10"
   transform="translate(0,402.899)">
</g>
<g
   id="g12"
   transform="translate(0,402.899)">
</g>
<g
   id="g14"
   transform="translate(0,402.899)">
</g>
<g
   id="g16"
   transform="translate(0,402.899)">
</g>
<g
   id="g18"
   transform="translate(0,402.899)">
</g>
<g
   id="g20"
   transform="translate(0,402.899)">
</g>
<g
   id="g22"
   transform="translate(0,402.899)">
</g>
<g
   id="g24"
   transform="translate(0,402.899)">
</g>
<g
   id="g26"
   transform="translate(0,402.899)">
</g>
<g
   id="g28"
   transform="translate(0,402.899)">
</g>
<g
   id="g30"
   transform="translate(0,402.899)">
</g>
<g
   id="g32"
   transform="translate(0,402.899)">
</g>
<g
   id="g34"
   transform="translate(0,402.899)">
</g>
</svg>